p8105_hw5_my2644
…
  t.test(alternative = "two.sided", mu = 0) %>%
  broom::tidy() %>%
  select(estimate, p.value)  
}

Generate 5000 datasets from the modelwith simulation function

sim_results = function(x) { 
  rerun(5000, sim_mean_sd(mu = x)) %>% 
  bind_rows()
}
sim_results(0)

## # A tibble: 5,000 x 2
##    estimate p.value
##       <dbl>   <dbl>
##  1  -0.740   0.491 
##  2  -1.49    0.141 
##  3  -1.59    0.0865
##  4  -0.269   0.787 
##  5   1.25    0.174 
##  6  -0.0492  0.958 
##  7  -1.32    0.178 
##  8   0.911   0.354 
##  9   1.15    0.262 
## 10  -0.369   0.692 
## #  with 4,990 more rows
…
